^C:\USERS\700211673\SOURCE\REPOS\LABEXERCISE2\LABEXERCISE2\MAIN.CPP
C:\USERS\700211673\SOURCE\REPOS\LABEXERCISE2\LABEXERCISE2\DEBUG\VC141.PDB
C:\USERS\700211673\SOURCE\REPOS\LABEXERCISE2\LABEXERCISE2\DEBUG\VC141.IDB
C:\USERS\700211673\SOURCE\REPOS\LABEXERCISE2\LABEXERCISE2\DEBUG\MAIN.OBJ
